…
```r
# format it for graphing
mydf.new <-   gather(AnalyticValidityTables8,key,value,-DemoGroup,-year,-Varname) %>%
  separate(col = key,into=c("SynComplt","Stat"),extra="merge") %>%
  spread(key = Stat,value = value) %>%
  group_by(year,SynComplt,DemoGroup) %>%
  subset(Varname != "Intercept")
# Example table:
mydf.new$Type <- paste(mydf.new$SynComplt,mydf.new$DemoGroup,sep=", ")
mydf.new
```

```
## # A tibble: 88 x 8
## # Groups:   year, SynComplt, DemoGroup [8]
##         Varname     DemoGroup  year SynComplt      CI_Hi      CI_Lo
##           <chr>         <chr> <dbl>     <chr>      <dbl>      <dbl>
##  1 college_only black females  2000 Completed  1.2071866  1.0295215
##  2 college_only black females  2000 Synthetic  0.9140016  0.7697288
##  3 college_only   black males  2000 Completed  0.9851876  0.7349155
##  4 college_only   black males  2000 Synthetic  0.9452307  0.4149682
##  5 college_only white females  2000 Completed  0.8654451  0.8015887
##  6 college_only white females  2000 Synthetic  0.8763363  0.5609585
##  7 college_only   white males  2000 Completed  0.9089809  0.8513702
##  8 college_only   white males  2000 Synthetic  0.9466513  0.5300726
##  9        disab black females  2000 Completed -0.3632086 -0.5434525
## 10        disab black females  2000 Synthetic -0.1915512 -0.4084382
## # ... with 78 more rows, and 2 more variables: Coef <dbl>, Type <chr>
```
…
